[
  {
    "id": 1,
    "name": "Great Book",
    "total_pages": 4000,
    "user": {
      "id": 1,
      "name": "Mosh"
    }
  },
  {
    "id": 2,
    "name": "Great Book",
    "readby": [
      "e1056f82-9e79-41e8-9b58-914f5d227488"
    ]
  },
  {
    "id": 3,
    "name": "Great Book",
    "readby": [
      "e1056f82-9e79-41e8-9b58-914f5d227488"
    ]
  }
]